url,user_id,type,timestamp
/login,10,in_page,2020-12-24T15:16:42+00:00
/login,10,start_session,2020-12-24T15:16:42+00:00
/login,200,start_session,2020-12-24T15:16:42+00:00
,10,end_session,2020-12-24T15:36:42+00:00